{
    "data": [
        {
            "friend": {
                "id": 67,
                "name": "Terry O'Conner",
                "first_name": "Terry",
                "profile_image": "https://picsum.photos/seed/62ea50100d37b/168/168",
                "background_image": "https://picsum.photos/seed/62ea50100d384/850/350"
            },
            "data": { "id": 1, "count": 9955, "updated_at": "2022-08-03 10:38" }
        },
        {
            "friend": {
                "id": 68,
                "name": "Leslie Kling",
                "first_name": "Leslie",
                "profile_image": "https://picsum.photos/seed/62ea5010c5ec3/168/168",
                "background_image": "https://picsum.photos/seed/62ea5010c5ec8/850/350"
            },
            "data": { "id": 2, "count": 5979, "updated_at": "2022-08-03 10:38" }
        },
        {
            "friend": {
                "id": 69,
                "name": "Kaylie Olson",
                "first_name": "Kaylie",
                "profile_image": "https://picsum.photos/seed/62ea5011634bb/168/168",
                "background_image": "https://picsum.photos/seed/62ea5011634bf/850/350"
            },
            "data": { "id": 3, "count": 3315, "updated_at": "2022-08-03 10:38" }
        },
        {
            "friend": {
                "id": 70,
                "name": "Marcos Rice",
                "first_name": "Marcos",
                "profile_image": "https://picsum.photos/seed/62ea5012019db/168/168",
                "background_image": "https://picsum.photos/seed/62ea5012019e0/850/350"
            },
            "data": { "id": 4, "count": 6451, "updated_at": "2022-08-03 10:38" }
        },
        {
            "friend": {
                "id": 71,
                "name": "Arely Marks",
                "first_name": "Arely",
                "profile_image": "https://picsum.photos/seed/62ea501294412/168/168",
                "background_image": "https://picsum.photos/seed/62ea501294417/850/350"
            },
            "data": { "id": 5, "count": 6912, "updated_at": "2022-08-03 10:38" }
        },
        {
            "friend": {
                "id": 72,
                "name": "Elliot McCullough",
                "first_name": "Elliot",
                "profile_image": "https://picsum.photos/seed/62ea501331c7e/168/168",
                "background_image": "https://picsum.photos/seed/62ea501331c82/850/350"
            },
            "data": { "id": 6, "count": 6313, "updated_at": "2022-08-03 10:38" }
        },
        {
            "friend": {
                "id": 73,
                "name": "Helen Sporer",
                "first_name": "Helen",
                "profile_image": "https://picsum.photos/seed/62ea5013c386d/168/168",
                "background_image": "https://picsum.photos/seed/62ea5013c3873/850/350"
            },
            "data": { "id": 7, "count": 23, "updated_at": "2022-08-03 10:38" }
        },
        {
            "friend": {
                "id": 74,
                "name": "Stephan Lang",
                "first_name": "Stephan",
                "profile_image": "https://picsum.photos/seed/62ea501460e00/168/168",
                "background_image": "https://picsum.photos/seed/62ea501460e16/850/350"
            },
            "data": { "id": 8, "count": 8588, "updated_at": "2022-08-03 10:38" }
        },
        {
            "friend": {
                "id": 75,
                "name": "Kirstin Emard",
                "first_name": "Kirstin",
                "profile_image": "https://picsum.photos/seed/62ea5014f28b9/168/168",
                "background_image": "https://picsum.photos/seed/62ea5014f28bd/850/350"
            },
            "data": { "id": 9, "count": 6859, "updated_at": "2022-08-03 10:38" }
        },
        {
            "friend": {
                "id": 76,
                "name": "Trystan Stiedemann",
                "first_name": "Trystan",
                "profile_image": "https://picsum.photos/seed/62ea50159f15b/168/168",
                "background_image": "https://picsum.photos/seed/62ea50159f160/850/350"
            },
            "data": { "id": 10, "count": 7064, "updated_at": "2022-08-03 10:38" }
        }
    ],
    "current_page": 1,
    "next_page": 2,
    "prev_page": null
}
